[
	[-4963.375, 3167.5, 117.34375],
	[-4910.71875, 3263.46875, 128],
	[-3958.21875, 3284.3125, 128],
	[-3940.34375, 3202.375, 68.1875],
	[-3482.15625, 3203.15625, 69.53125],
	[-3487.71875, 3308.90625, 128],
	[-3395.875, 3272.59375, 128],
	[-3325.4375, 3233.53125, 121.53125],
	[-3239.90625, 3356.875, 128],
	[-3160.5625, 3481.6875, 128],
	[-2940.34375, 3531.21875, 128],
	[-2702.5, 3421.625, 128],
	[-2544.28125, 3285.59375, 128],
	[-2207.96875, 3241.375, 256],
	[-1911.5625, 3395.90625, 236.59375],
	[-1754.90625, 3491.46875, 256],
	[-1514.65625, 3275, 256],
	[-1415.78125, 3190.96875, 247.59375],
	[-1617.59375, 3017.3125, 65.65625],
	[-1357.15625, 2736.5, 69.53125],
	[-1130.0625, 2927.625, 256],
	[-1077.09375, 2768.5, 256],
	[-1042.40625, 1749.71875, 256],
	[-1015.75, 1473.34375, 128],
	[-902.125, 1398.15625, 118.15625],
	[-933.15625, 1320.5, 45.40625],
	[-879.03125, 889.875, 0],
	[-854.6875, 835.59375, 0],
	[-739.4375, 919.375, 122.09375],
	[-635.21875, 995.0625, 128],
	[28.625, 1828.09375, 128.34375],
	[482.71875, 1828.6875, 128.96875],
	[738.53125, 1918.0625, 128],
	[1124.8125, 2183.375, 128],
	[1571.96875, 2441.46875, 127.96875],
	[2266.90625, 3158.1875, 128],
	[2638.15625, 3593.09375, 128],
	[2929.71875, 3959.875, 128],
	[3020.4375, 4262.4375, 128],
	[2750, 4521.5625, 128],
	[2043.4375, 4649.09375, 128],
	[1749.125, 4633.84375, 128],
	[1740.3125, 4544.28125, 153.6875],
	[1532.8125, 4538.46875, 256],
	[1421.78125, 4815.5, 213.53125],
	[1350.96875, 5033.34375, 256],
	[1296.71875, 5179.3125, 256],
	[837.8125, 5223.28125, 203.40625],
	[770.625, 5126.34375, 256],
	[694.0625, 5158.6875, 236.625],
	[721.4375, 5341.5, 136.5],
	[187.4375, 5360.1875, 133.625],
	[182.21875, 5152.9375, 244.40625],
	[32.28125, 5192.46875, 255.96875],
	[-85.59375, 5164.9375, 256],
	[-235.53125, 5425.6875, 256],
	[-410.3125, 5454.125, 256],
	[-667.4375, 5450.4375, 256],
	[-874.59375, 5382.65625, 226.53125],
	[-1175.625, 5352, 128],
	[-2745.78125, 5127.71875, 128],
	[-4191.40625, 4448.625, 128],
	[-4994.375, 4082.1875, 128],
	[-5006.84375, 3189, 128]
]