[
	[1369.0625, -441.5, 128],
	[1489.15625, -592.84375, 127.96875],
	[1685.15625, -681.40625, 135.90625],
	[1793.40625, -843.96875, 255.96875],
	[1825.53125, -1043.71875, 256],
	[2165.6875, -1096.125, 256],
	[2462.1875, -1108.25, 255.96875],
	[2448.53125, -1366.90625, 255.96875],
	[2186.25, -1611.09375, 31.5625],
	[2487.53125, -1909.34375, 33.0625],
	[2736.875, -1672.875, 219.96875],
	[2861.125, -1591.875, 256],
	[3566.03125, -1583.875, 256],
	[3913.125, -1624.1875, 128],
	[4286.71875, -1746.59375, 128],
	[4369.59375, -1821.40625, 122.0625],
	[4235.625, -1875.40625, 28.09375],
	[4519.25, -2134.5625, 40.34375],
	[4962, -2525.3125, 32.0625],
	[4991.9375, -2401.5625, 128],
	[5013.75, -2077.5625, 128],
	[5016.625, -1492.21875, 128],
	[5077.125, -527.5625, 256],
	[5129.375, 1243.0625, 256],
	[5147.09375, 1927.125, 128],
	[5016.34375, 2262.46875, 128],
	[4542.40625, 2230, 128],
	[3832.75, 1277.15625, 128],
	[3382.65625, 1279.15625, 128],
	[3168.96875, 1044.46875, 129.28125],
	[2898.15625, 811.34375, 128],
	[2031.375, -18.0625, 128]
]